<?xml version="1.0" standalone="no"?>
<!DOCTYPE svg PUBLIC "-//W3C//DTD SVG 1.1//EN" "http://www.w3.org/Graphics/SVG/1.1/DTD/svg11.dtd" >
<!--
2013-9-30: Created.
-->
<svg>
<metadata>
Created by iconfont
</metadata>
<defs>

<font id="iconfont" horiz-adv-x="1024" >
  <font-face
    font-family="iconfont"
    font-weight="500"
    font-stretch="normal"
    units-per-em="1024"
    ascent="896"
    descent="-128"
  />
    <missing-glyph />
    
    <glyph glyph-name="x" unicode="x" horiz-adv-x="1001"
d="M281 543q-27 -1 -53 -1h-83q-18 0 -36.5 -6t-32.5 -18.5t-23 -32t-9 -45.5v-76h912v41q0 16 -0.5 30t-0.5 18q0 13 -5 29t-17 29.5t-31.5 22.5t-49.5 9h-133v-97h-438v97zM955 310v-52q0 -23 0.5 -52t0.5 -58t-10.5 -47.5t-26 -30t-33 -16t-31.5 -4.5q-14 -1 -29.5 -0.5
t-29.5 0.5h-32l-45 128h-439l-44 -128h-29h-34q-20 0 -45 1q-25 0 -41 9.5t-25.5 23t-13.5 29.5t-4 30v167h911zM163 247q-12 0 -21 -8.5t-9 -21.5t9 -21.5t21 -8.5q13 0 22 8.5t9 21.5t-9 21.5t-22 8.5zM316 123q-8 -26 -14 -48q-5 -19 -10.5 -37t-7.5 -25t-3 -15t1 -14.5
t9.5 -10.5t21.5 -4h37h67h81h80h64h36q23 0 34 12t2 38q-5 13 -9.5 30.5t-9.5 34.5q-5 19 -11 39h-368zM336 498v228q0 11 2.5 23t10 21.5t20.5 15.5t34 6h188q31 0 51.5 -14.5t20.5 -52.5v-227h-327z" />
    

    
    <glyph glyph-name="map" unicode="&#59157;" d="M451.673935-98.395699C478.883834-129.019147 524.254807-128.808979 551.400292-97.928851 553.755808-95.387908 558.821323-89.796762 565.872444-81.84835 577.572838-68.659017 590.597131-53.62432 604.615947-36.998315 644.662065 10.495494 684.708678 61.282182 722.129538 113.353553 759.658524 165.575381 792.492213 216.290726 819.314991 264.541538 868.685946 353.353683 896 430.456574 896 493.714285 896 715.890551 719.301715 896 501.333333 896 283.364952 896 106.666667 715.890551 106.666667 493.714285 106.666667 430.401284 134.05152 353.19427 183.54613 264.237378 210.371803 216.023471 243.193308 165.348124 280.699364 113.166846 318.155192 61.05545 358.239268 10.22579 398.322835-37.311031 412.354743-53.952073 425.391185-69.00073 437.102468-82.202579 444.160087-90.158466 449.230214-95.754921 451.982775-98.736706L451.673935-98.395699ZM486.822684-65.321348C484.281231-62.568254 479.425084-57.207989 472.585916-49.498359 461.135889-36.591017 448.364015-21.847761 434.602351-5.527215 395.275714 41.111927 355.949587 90.980452 319.289224 141.985137 282.808749 192.739548 250.983685 241.876422 225.158316 288.292478 179.388826 370.554195 154.50505 440.709839 154.50505 493.714285 154.50505 688.960095 309.785362 847.238095 501.333333 847.238095 692.881306 847.238095 848.161617 688.960095 848.161617 493.714285 848.161617 440.753978 823.345286 370.701737 777.693969 288.580749 751.873483 242.132934 720.038415 192.960075 683.537446 142.168738 646.912604 91.205033 607.624538 41.380326 568.335977-5.215038 554.587654-21.520243 541.828177-36.24925 530.389289-49.143797 523.556841-56.845711 518.705521-62.200435 516.166694-64.950526 507.543772-74.748911 495.255793-74.80583 487.131524-65.662353L486.822684-65.321348ZM714.955981 428.971194C723.919106 453.372045 728.565658 479.331002 728.565658 505.904762 728.565658 627.091817 632.184774 725.333333 513.29293 725.333333 394.401086 725.333333 298.020202 627.091817 298.020202 505.904762 298.020202 384.717709 394.401086 286.47619 513.29293 286.47619 549.003859 286.47619 583.510052 295.368053 614.373097 312.125591 626.032316 318.456132 630.449257 333.22218 624.238611 345.106481 618.027966 356.990782 603.541579 361.492994 591.882359 355.162451 567.900883 342.141361 541.111735 335.238095 513.29293 335.238095 420.821495 335.238095 345.858586 411.648164 345.858586 505.904762 345.858586 600.161359 420.821495 676.571428 513.29293 676.571428 605.764365 676.571428 680.727273 600.161359 680.727273 505.904762 680.727273 485.192019 677.117041 465.022684 670.154965 446.069408 665.522846 433.459117 671.796821 419.408892 684.168282 414.687349 696.53974 409.965809 710.323861 416.360905 714.955981 428.971194L714.955981 428.971194Z"  horiz-adv-x="1024" />

    


  </font>
</defs></svg>
